(module XL4432-SMT-HEAD (layer F.Cu) (tedit 54A03AD4)
  (fp_text reference XL4432-SMT-HEAD (at 0 5.08) (layer F.SilkS)
    (effects (font (size 1 1) (thickness 0.15)))
  )
  (fp_text value VAL** (at 0 -5.715) (layer F.SilkS)
    (effects (font (size 1 1) (thickness 0.15)))
  )
  (fp_line (start -8.255 -8.255) (end 8.255 -8.255) (layer F.SilkS) (width 0.15))
  (fp_line (start 8.255 -8.255) (end 8.255 8.255) (layer F.SilkS) (width 0.15))
  (fp_line (start 8.255 8.255) (end -8.255 8.255) (layer F.SilkS) (width 0.15))
  (fp_line (start -8.255 8.255) (end -8.255 -8.255) (layer F.SilkS) (width 0.15))
  (pad 1 smd oval (at -8.255 -6.985) (size 2 0.9) (layers F.Cu F.Paste F.Mask))
  (pad 2 smd oval (at -8.255 -5.715) (size 2 0.9) (layers F.Cu F.Paste F.Mask))
  (pad 3 smd oval (at -8.255 -4.445) (size 2 0.9) (layers F.Cu F.Paste F.Mask))
  (pad 4 smd oval (at -8.255 -3.175) (size 2 0.9) (layers F.Cu F.Paste F.Mask))
  (pad 5 smd oval (at -8.255 -1.905) (size 2 0.9) (layers F.Cu F.Paste F.Mask))
  (pad 6 smd oval (at -8.255 -0.635) (size 2 0.9) (layers F.Cu F.Paste F.Mask))
  (pad 7 smd oval (at -8.255 0.635) (size 2 0.9) (layers F.Cu F.Paste F.Mask))
  (pad 8 smd oval (at -8.255 1.905) (size 2 0.9) (layers F.Cu F.Paste F.Mask))
  (pad 9 smd oval (at -8.255 3.175) (size 2 0.9) (layers F.Cu F.Paste F.Mask))
  (pad 10 smd oval (at -8.255 4.445) (size 2 0.9) (layers F.Cu F.Paste F.Mask))
  (pad 11 smd oval (at -8.255 5.715) (size 2 0.9) (layers F.Cu F.Paste F.Mask))
  (pad 12 smd oval (at -8.255 6.985) (size 2 0.9) (layers F.Cu F.Paste F.Mask))
)
