EESchema Schematic File Version 2
LIBS:power
LIBS:device
LIBS:transistors
LIBS:conn
LIBS:linear
LIBS:regul
LIBS:74xx
LIBS:cmos4000
LIBS:adc-dac
LIBS:memory
LIBS:xilinx
LIBS:microcontrollers
LIBS:dsp
LIBS:microchip
LIBS:analog_switches
LIBS:motorola
LIBS:texas
LIBS:intel
LIBS:audio
LIBS:interface
LIBS:digital-audio
LIBS:philips
LIBS:display
LIBS:cypress
LIBS:siliconi
LIBS:opto
LIBS:atmel
LIBS:contrib
LIBS:valves
LIBS:ds3231m
LIBS:bmp180
LIBS:radio
LIBS:project-cache
EELAYER 25 0
EELAYER END
$Descr A4 11693 8268
encoding utf-8
Sheet 1 1
Title ""
Date ""
Rev ""
Comp ""
Comment1 ""
Comment2 ""
Comment3 ""
Comment4 ""
$EndDescr
$Comp
L DS3231M-SO16 D1
U 1 1 562A365F
P 4450 3050
F 0 "D1" H 4450 3550 60  0000 C CNN
F 1 "DS3231M-SO16" H 4450 2550 60  0000 C CNN
F 2 "SMD_Packages:SO-16-L" H 4500 2900 60  0001 C CNN
F 3 "" H 4500 2900 60  0000 C CNN
	1    4450 3050
	1    0    0    -1  
$EndComp
$Comp
L CONN_01X06 P2
U 1 1 562A36AE
P 7500 3050
F 0 "P2" H 7500 3400 50  0000 C CNN
F 1 "GPIO" V 7600 3050 50  0000 C CNN
F 2 "local:Pin_Header_Straight_1x06_Pitch2.00mm" H 7500 3050 60  0001 C CNN
F 3 "" H 7500 3050 60  0000 C CNN
	1    7500 3050
	1    0    0    1   
$EndComp
$Comp
L GND #PWR01
U 1 1 562A3743
P 7200 3400
F 0 "#PWR01" H 7200 3150 50  0001 C CNN
F 1 "GND" H 7200 3250 50  0000 C CNN
F 2 "" H 7200 3400 60  0000 C CNN
F 3 "" H 7200 3400 60  0000 C CNN
	1    7200 3400
	1    0    0    -1  
$EndComp
Text Label 7200 2800 2    60   ~ 0
GPIO_21
Text Label 7200 2900 2    60   ~ 0
GPIO_22
Text Label 7200 3000 2    60   ~ 0
GPIO_18
Text Label 7200 3100 2    60   ~ 0
GPIO_19
Text Label 7200 3200 2    60   ~ 0
GPIO_20
$Comp
L Battery BT1
U 1 1 562A37CC
P 6000 3250
F 0 "BT1" H 6100 3300 50  0000 L CNN
F 1 "CR2032" H 6100 3200 50  0000 L CNN
F 2 "local:CR2032_BATTERY" V 6000 3290 60  0001 C CNN
F 3 "" V 6000 3290 60  0000 C CNN
	1    6000 3250
	1    0    0    -1  
$EndComp
$Comp
L GND #PWR02
U 1 1 562A3934
P 6000 3500
F 0 "#PWR02" H 6000 3250 50  0001 C CNN
F 1 "GND" H 6000 3350 50  0000 C CNN
F 2 "" H 6000 3500 60  0000 C CNN
F 3 "" H 6000 3500 60  0000 C CNN
	1    6000 3500
	1    0    0    -1  
$EndComp
$Comp
L +BATT #PWR03
U 1 1 562A3968
P 6000 3000
F 0 "#PWR03" H 6000 2850 50  0001 C CNN
F 1 "+BATT" H 6000 3140 50  0000 C CNN
F 2 "" H 6000 3000 60  0000 C CNN
F 3 "" H 6000 3000 60  0000 C CNN
	1    6000 3000
	1    0    0    -1  
$EndComp
$Comp
L +BATT #PWR04
U 1 1 562A3A4B
P 5100 2900
F 0 "#PWR04" H 5100 2750 50  0001 C CNN
F 1 "+BATT" V 5100 3150 50  0000 C CNN
F 2 "" H 5100 2900 60  0000 C CNN
F 3 "" H 5100 2900 60  0000 C CNN
	1    5100 2900
	0    1    1    0   
$EndComp
$Comp
L GND #PWR05
U 1 1 562A3A80
P 5100 3500
F 0 "#PWR05" H 5100 3250 50  0001 C CNN
F 1 "GND" H 5100 3350 50  0000 C CNN
F 2 "" H 5100 3500 60  0000 C CNN
F 3 "" H 5100 3500 60  0000 C CNN
	1    5100 3500
	1    0    0    -1  
$EndComp
$Comp
L GND #PWR06
U 1 1 562A3B6B
P 3800 3500
F 0 "#PWR06" H 3800 3250 50  0001 C CNN
F 1 "GND" H 3800 3350 50  0000 C CNN
F 2 "" H 3800 3500 60  0000 C CNN
F 3 "" H 3800 3500 60  0000 C CNN
	1    3800 3500
	1    0    0    -1  
$EndComp
Text Label 5100 2700 0    60   ~ 0
I2C_SCL
Text Label 5100 2800 0    60   ~ 0
I2C_SDA
$Comp
L +3V3 #PWR07
U 1 1 562A3E42
P 7200 2000
F 0 "#PWR07" H 7200 1850 50  0001 C CNN
F 1 "+3V3" V 7200 2250 50  0000 C CNN
F 2 "" H 7200 2000 60  0000 C CNN
F 3 "" H 7200 2000 60  0000 C CNN
	1    7200 2000
	0    -1   -1   0   
$EndComp
NoConn ~ 3800 3000
NoConn ~ 3800 2900
NoConn ~ 3800 2700
$Comp
L +3V3 #PWR08
U 1 1 562A4203
P 3800 2800
F 0 "#PWR08" H 3800 2650 50  0001 C CNN
F 1 "+3V3" V 3800 3050 50  0000 C CNN
F 2 "" H 3800 2800 60  0000 C CNN
F 3 "" H 3800 2800 60  0000 C CNN
	1    3800 2800
	0    -1   -1   0   
$EndComp
Text Label 6000 2200 0    60   ~ 0
GPIO_21
Text Label 6000 2300 0    60   ~ 0
GPIO_22
Text Label 5600 2200 2    60   ~ 0
I2C_SCL
Text Label 5600 2300 2    60   ~ 0
I2C_SDA
$Comp
L R R1
U 1 1 562A445C
P 5700 1950
F 0 "R1" V 5780 1950 50  0000 C CNN
F 1 "4K7" V 5700 1950 50  0000 C CNN
F 2 "Resistors_SMD:R_0603" V 5630 1950 30  0001 C CNN
F 3 "" H 5700 1950 30  0000 C CNN
	1    5700 1950
	-1   0    0    1   
$EndComp
$Comp
L R R2
U 1 1 562A4509
P 5900 1950
F 0 "R2" V 5980 1950 50  0000 C CNN
F 1 "4K7" V 5900 1950 50  0000 C CNN
F 2 "Resistors_SMD:R_0603" V 5830 1950 30  0001 C CNN
F 3 "" H 5900 1950 30  0000 C CNN
	1    5900 1950
	-1   0    0    -1  
$EndComp
$Comp
L +3V3 #PWR09
U 1 1 562A46C2
P 5800 1600
F 0 "#PWR09" H 5800 1450 50  0001 C CNN
F 1 "+3V3" V 5800 1850 50  0000 C CNN
F 2 "" H 5800 1600 60  0000 C CNN
F 3 "" H 5800 1600 60  0000 C CNN
	1    5800 1600
	1    0    0    -1  
$EndComp
$Comp
L C C2
U 1 1 562A47E5
P 5000 1950
F 0 "C2" H 5025 2050 50  0000 L CNN
F 1 "100n" H 5025 1850 50  0000 L CNN
F 2 "Capacitors_SMD:C_0603" H 5038 1800 30  0001 C CNN
F 3 "" H 5000 1950 60  0000 C CNN
	1    5000 1950
	1    0    0    -1  
$EndComp
$Comp
L +3V3 #PWR010
U 1 1 562A48A2
P 5000 1700
F 0 "#PWR010" H 5000 1550 50  0001 C CNN
F 1 "+3V3" V 5000 1950 50  0000 C CNN
F 2 "" H 5000 1700 60  0000 C CNN
F 3 "" H 5000 1700 60  0000 C CNN
	1    5000 1700
	1    0    0    -1  
$EndComp
$Comp
L GND #PWR011
U 1 1 562A48BD
P 5000 2200
F 0 "#PWR011" H 5000 1950 50  0001 C CNN
F 1 "GND" H 5000 2050 50  0000 C CNN
F 2 "" H 5000 2200 60  0000 C CNN
F 3 "" H 5000 2200 60  0000 C CNN
	1    5000 2200
	1    0    0    -1  
$EndComp
$Comp
L +3V3 #PWR012
U 1 1 562A4D7F
P 4600 1700
F 0 "#PWR012" H 4600 1550 50  0001 C CNN
F 1 "+3V3" V 4600 1950 50  0000 C CNN
F 2 "" H 4600 1700 60  0000 C CNN
F 3 "" H 4600 1700 60  0000 C CNN
	1    4600 1700
	1    0    0    -1  
$EndComp
$Comp
L GND #PWR013
U 1 1 562A4D85
P 4600 2200
F 0 "#PWR013" H 4600 1950 50  0001 C CNN
F 1 "GND" H 4600 2050 50  0000 C CNN
F 2 "" H 4600 2200 60  0000 C CNN
F 3 "" H 4600 2200 60  0000 C CNN
	1    4600 2200
	1    0    0    -1  
$EndComp
$Comp
L BMP180 D2
U 1 1 562A5017
P 5600 4500
F 0 "D2" H 5600 4900 60  0000 C CNN
F 1 "BMP180" H 5600 4100 60  0000 C CNN
F 2 "local:BMP180" H 5600 4300 60  0001 C CNN
F 3 "" H 5600 4300 60  0000 C CNN
	1    5600 4500
	1    0    0    -1  
$EndComp
$Comp
L AP1117 U1
U 1 1 562A52AE
P 4000 4300
F 0 "U1" H 4100 4050 50  0000 C CNN
F 1 "662K" H 4000 4550 50  0000 C CNN
F 2 "Housings_SOT-23_SOT-143_TSOT-6:SOT-23" H 4000 4300 60  0001 C CNN
F 3 "" H 4000 4300 60  0000 C CNN
	1    4000 4300
	1    0    0    -1  
$EndComp
$Comp
L +3V3 #PWR014
U 1 1 562A5435
P 3600 4300
F 0 "#PWR014" H 3600 4150 50  0001 C CNN
F 1 "+3V3" V 3600 4550 50  0000 C CNN
F 2 "" H 3600 4300 60  0000 C CNN
F 3 "" H 3600 4300 60  0000 C CNN
	1    3600 4300
	0    -1   -1   0   
$EndComp
$Comp
L C C3
U 1 1 562A5582
P 4400 4550
F 0 "C3" H 4425 4650 50  0000 L CNN
F 1 "100n" H 4425 4450 50  0000 L CNN
F 2 "Capacitors_SMD:C_0603" H 4438 4400 30  0001 C CNN
F 3 "" H 4400 4550 60  0000 C CNN
	1    4400 4550
	1    0    0    -1  
$EndComp
$Comp
L GND #PWR015
U 1 1 562A5765
P 4000 4800
F 0 "#PWR015" H 4000 4550 50  0001 C CNN
F 1 "GND" H 4000 4650 50  0000 C CNN
F 2 "" H 4000 4800 60  0000 C CNN
F 3 "" H 4000 4800 60  0000 C CNN
	1    4000 4800
	1    0    0    -1  
$EndComp
$Comp
L GND #PWR016
U 1 1 562A5791
P 4400 4800
F 0 "#PWR016" H 4400 4550 50  0001 C CNN
F 1 "GND" H 4400 4650 50  0000 C CNN
F 2 "" H 4400 4800 60  0000 C CNN
F 3 "" H 4400 4800 60  0000 C CNN
	1    4400 4800
	1    0    0    -1  
$EndComp
$Comp
L CP C4
U 1 1 562A57BF
P 4700 4550
F 0 "C4" H 4725 4650 50  0000 L CNN
F 1 "4u7" H 4725 4450 50  0000 L CNN
F 2 "Capacitors_SMD:C_0805" H 4738 4400 30  0001 C CNN
F 3 "" H 4700 4550 60  0000 C CNN
	1    4700 4550
	1    0    0    -1  
$EndComp
Text Label 6200 4300 0    60   ~ 0
I2C_SCL
Text Label 6200 4400 0    60   ~ 0
I2C_SDA
$Comp
L GND #PWR017
U 1 1 562A5B87
P 4700 4800
F 0 "#PWR017" H 4700 4550 50  0001 C CNN
F 1 "GND" H 4700 4650 50  0000 C CNN
F 2 "" H 4700 4800 60  0000 C CNN
F 3 "" H 4700 4800 60  0000 C CNN
	1    4700 4800
	1    0    0    -1  
$EndComp
$Comp
L GND #PWR018
U 1 1 562A5C06
P 6200 4800
F 0 "#PWR018" H 6200 4550 50  0001 C CNN
F 1 "GND" H 6200 4650 50  0000 C CNN
F 2 "" H 6200 4800 60  0000 C CNN
F 3 "" H 6200 4800 60  0000 C CNN
	1    6200 4800
	1    0    0    -1  
$EndComp
NoConn ~ 5000 4600
NoConn ~ 5000 4700
$Comp
L CP C1
U 1 1 562A65D0
P 4600 1950
F 0 "C1" H 4625 2050 50  0000 L CNN
F 1 "4u7" H 4625 1850 50  0000 L CNN
F 2 "Capacitors_SMD:C_0805" H 4638 1800 30  0001 C CNN
F 3 "" H 4600 1950 60  0000 C CNN
	1    4600 1950
	1    0    0    -1  
$EndComp
$Comp
L XL4432-SMT D3
U 1 1 562A60B3
P 9100 3400
F 0 "D3" H 9100 4150 60  0000 C CNN
F 1 "XL4432-SMT" H 9100 2700 60  0000 C CNN
F 2 "local:XL4432-SMT-HEAD" H 9100 3400 60  0001 C CNN
F 3 "" H 9100 3400 60  0000 C CNN
	1    9100 3400
	1    0    0    -1  
$EndComp
$Comp
L GND #PWR019
U 1 1 562A62DA
P 8300 2700
F 0 "#PWR019" H 8300 2450 50  0001 C CNN
F 1 "GND" H 8300 2550 50  0000 C CNN
F 2 "" H 8300 2700 60  0000 C CNN
F 3 "" H 8300 2700 60  0000 C CNN
	1    8300 2700
	-1   0    0    1   
$EndComp
$Comp
L GND #PWR020
U 1 1 562A64AB
P 8200 4000
F 0 "#PWR020" H 8200 3750 50  0001 C CNN
F 1 "GND" H 8200 3850 50  0000 C CNN
F 2 "" H 8200 4000 60  0000 C CNN
F 3 "" H 8200 4000 60  0000 C CNN
	1    8200 4000
	1    0    0    -1  
$EndComp
NoConn ~ 8300 3700
NoConn ~ 8300 2900
NoConn ~ 8300 3000
NoConn ~ 8300 3100
Text Label 8300 3300 2    60   ~ 0
SPI_MISO
Text Label 8300 3400 2    60   ~ 0
SPI_MOSI
Text Label 8300 3500 2    60   ~ 0
SPI_SCLK
Text Label 7500 4100 0    60   ~ 0
SPI_MISO
Text Label 7500 4200 0    60   ~ 0
SPI_MOSI
Text Label 7500 4300 0    60   ~ 0
SPI_SCLK
Text Label 7300 4100 2    60   ~ 0
GPIO_18
Text Label 7300 4200 2    60   ~ 0
GPIO_19
Text Label 7300 4300 2    60   ~ 0
GPIO_20
Wire Wire Line
	7300 2800 7200 2800
Wire Wire Line
	7300 2900 7200 2900
Wire Wire Line
	7300 3000 7200 3000
Wire Wire Line
	7300 3100 7200 3100
Wire Wire Line
	7300 3200 7200 3200
Wire Wire Line
	7300 3300 7200 3300
Wire Wire Line
	7200 3300 7200 3400
Wire Wire Line
	6000 3400 6000 3500
Wire Wire Line
	6000 3100 6000 3000
Wire Wire Line
	5000 2900 5100 2900
Wire Wire Line
	5000 3000 5100 3000
Wire Wire Line
	5100 3000 5100 3500
Wire Wire Line
	5000 3400 5100 3400
Connection ~ 5100 3400
Wire Wire Line
	5000 3300 5100 3300
Connection ~ 5100 3300
Wire Wire Line
	5000 3200 5100 3200
Connection ~ 5100 3200
Wire Wire Line
	5000 3100 5100 3100
Connection ~ 5100 3100
Wire Wire Line
	3900 3100 3800 3100
Wire Wire Line
	3800 3100 3800 3500
Wire Wire Line
	3900 3200 3800 3200
Connection ~ 3800 3200
Wire Wire Line
	3900 3300 3800 3300
Connection ~ 3800 3300
Wire Wire Line
	3900 3400 3800 3400
Connection ~ 3800 3400
Wire Wire Line
	5000 2700 5100 2700
Wire Wire Line
	5000 2800 5100 2800
Wire Wire Line
	3900 2700 3800 2700
Wire Wire Line
	3900 2800 3800 2800
Wire Wire Line
	7300 2000 7200 2000
Wire Wire Line
	3900 2900 3800 2900
Wire Wire Line
	3900 3000 3800 3000
Wire Wire Line
	5600 2200 6000 2200
Wire Wire Line
	5600 2300 6000 2300
Wire Wire Line
	5700 2100 5700 2300
Connection ~ 5700 2300
Wire Wire Line
	5900 2100 5900 2200
Connection ~ 5900 2200
Wire Wire Line
	5700 1800 5700 1700
Wire Wire Line
	5700 1700 5900 1700
Wire Wire Line
	5900 1700 5900 1800
Wire Wire Line
	5800 1600 5800 1700
Connection ~ 5800 1700
Wire Wire Line
	5000 2100 5000 2200
Wire Wire Line
	5000 1800 5000 1700
Wire Wire Line
	4600 2100 4600 2200
Wire Wire Line
	4600 1800 4600 1700
Wire Wire Line
	4300 4300 5100 4300
Wire Wire Line
	5100 4400 5000 4400
Wire Wire Line
	5000 4400 5000 4300
Wire Wire Line
	3700 4300 3600 4300
Wire Wire Line
	4400 4300 4400 4400
Wire Wire Line
	4000 4600 4000 4800
Wire Wire Line
	4400 4700 4400 4800
Wire Wire Line
	4700 4300 4700 4400
Connection ~ 4400 4300
Connection ~ 5000 4300
Connection ~ 4700 4300
Wire Wire Line
	6100 4300 6200 4300
Wire Wire Line
	6100 4400 6200 4400
Wire Wire Line
	6100 4700 6200 4700
Wire Wire Line
	6200 4700 6200 4800
Wire Wire Line
	4700 4700 4700 4800
Wire Wire Line
	5100 4600 5000 4600
Wire Wire Line
	5100 4700 5000 4700
Wire Wire Line
	8400 2800 8300 2800
Wire Wire Line
	8300 2800 8300 2700
Wire Wire Line
	8200 3200 8400 3200
Wire Wire Line
	8200 3900 8400 3900
Wire Wire Line
	8200 3600 8200 4000
Wire Wire Line
	8400 3700 8300 3700
Wire Wire Line
	8200 3600 8400 3600
Wire Wire Line
	8400 3500 8300 3500
Wire Wire Line
	8400 3400 8300 3400
Wire Wire Line
	8400 3300 8300 3300
Wire Wire Line
	8400 3100 8300 3100
Wire Wire Line
	8400 3000 8300 3000
Wire Wire Line
	8400 2900 8300 2900
Wire Wire Line
	8400 3800 8200 3800
Wire Wire Line
	7500 4100 7300 4100
Wire Wire Line
	7300 4200 7500 4200
Wire Wire Line
	7300 4300 7500 4300
Connection ~ 8200 3900
Connection ~ 8200 3800
Wire Wire Line
	8200 3200 8200 3100
$Comp
L +3V3 #PWR021
U 1 1 562A7971
P 8200 3100
F 0 "#PWR021" H 8200 2950 50  0001 C CNN
F 1 "+3V3" V 8200 3350 50  0000 C CNN
F 2 "" H 8200 3100 60  0000 C CNN
F 3 "" H 8200 3100 60  0000 C CNN
	1    8200 3100
	1    0    0    -1  
$EndComp
Wire Wire Line
	9800 2800 9900 2800
Wire Wire Line
	9800 2900 9900 2900
NoConn ~ 9900 2800
NoConn ~ 9900 2900
$Comp
L C C5
U 1 1 562A67CD
P 10150 3350
F 0 "C5" H 10175 3450 50  0000 L CNN
F 1 "100n" H 10175 3250 50  0000 L CNN
F 2 "Capacitors_SMD:C_0603" H 10188 3200 30  0001 C CNN
F 3 "" H 10150 3350 60  0000 C CNN
	1    10150 3350
	1    0    0    -1  
$EndComp
$Comp
L +3V3 #PWR022
U 1 1 562A67D3
P 10150 3100
F 0 "#PWR022" H 10150 2950 50  0001 C CNN
F 1 "+3V3" V 10150 3350 50  0000 C CNN
F 2 "" H 10150 3100 60  0000 C CNN
F 3 "" H 10150 3100 60  0000 C CNN
	1    10150 3100
	1    0    0    -1  
$EndComp
$Comp
L GND #PWR023
U 1 1 562A67D9
P 10150 3600
F 0 "#PWR023" H 10150 3350 50  0001 C CNN
F 1 "GND" H 10150 3450 50  0000 C CNN
F 2 "" H 10150 3600 60  0000 C CNN
F 3 "" H 10150 3600 60  0000 C CNN
	1    10150 3600
	1    0    0    -1  
$EndComp
Wire Wire Line
	10150 3500 10150 3600
Wire Wire Line
	10150 3200 10150 3100
$Comp
L CONN_01X01 P1
U 1 1 5633305E
P 7500 2000
F 0 "P1" H 7500 2100 50  0000 C CNN
F 1 "PWR" V 7600 2000 50  0000 C CNN
F 2 "Pin_Headers:Pin_Header_Straight_1x01" H 7500 2000 60  0001 C CNN
F 3 "" H 7500 2000 60  0000 C CNN
	1    7500 2000
	1    0    0    -1  
$EndComp
$EndSCHEMATC
